…
arm_data
```

    ## # A tibble: 160 × 4
    ##    file_names subject_id week  arm_value
    ##    <chr>      <fct>      <fct>     <dbl>
    ##  1 Control    1          1          0.2 
    ##  2 Control    2          1          1.13
    ##  3 Control    3          1          1.77
    ##  4 Control    4          1          1.04
    ##  5 Control    5          1          0.47
    ##  6 Control    6          1          2.37
    ##  7 Control    7          1          0.03
    ##  8 Control    8          1         -0.08
    ##  9 Control    9          1          0.08
    ## 10 Control    10         1          2.14
    ## # ℹ 150 more rows
…
